{
  "$schema": "https://schema.management.azure.com/schemas/2015-01-01/deploymentParameters.json#",
  "contentVersion": "1.0.0.0",
  "parameters": {
    "VM01Name": {
      "value": "newvmanar"
    },
    "VM01AdminUserName": {
      "value": "azureadmin"
    },
    "VM01AdminPassword": {
      "value": "Anaradmin123#@!"
    },
    "mypipDnsName": {
      "value": "newvmanar"
    },
    "indexhtml1": {
      "value": "firstindex.html"
    },
    "indexhtml2": {
      "value": "secondindex.html"
    }
  }
}